{
    "installed": {
        "client_id": "349876412854-mr63674ot7sfo9agh5v2dgrkphfa6mha.apps.googleusercontent.com",
        "project_id": "quickstart-1551268555251",
        "auth_uri": "https://accounts.google.com/o/oauth2/auth",
        "token_uri": "https://oauth2.googleapis.com/token",
        "auth_provider_x509_cert_url": "https://www.googleapis.com/oauth2/v1/certs",
        "client_secret": "2R1AsvBr6iVbHsAdoev14nQy",
        "redirect_uris": ["urn:ietf:wg:oauth:2.0:oob", "http://localhost"]
    }
}